Michigan Amicus Project
…
Michigan Amicus Project

Data Transformation

Transforming amicus briefs into tokens to be analyzed. With stop words being removed, there are approximately 1.3 million words used though 420 Amicus Briefs. Most words are fairly generic, but that should not be entirely surprising considering that all briefs have been submitted to the Michigan Supreme Court. In the graph, the top 15 words from amicus briefs are shown. Numerical values have been removed from the graph.

## # A tibble: 48,135 x 2
##    word         n
##    <chr>    <int>
##  1 court    21493
##  2 mich     10260
##  3 michigan  8194
##  4 mcl       7714
##  5 law       6864
##  6 1         6427
##  7 appeals   5720
##  8 nw2d      5473
##  9 2         5230
## 10 public    5019
## # ... with 48,125 more rows
…
Word Frequenices

The frequencies of words does not vary much by different amicus filers. When grouped by the group that filed an amicus brief, the frequencies are reflective of the groups that file most frequently. Frequencies are based on the total words contained in the analysis (approximately 1.3m), so when the Attorney General uses the word court 86,970 times, the frequency is the percentage of times that the Attorney General uses the word court among all 1.3m word usages throughout all the amicus briefs in this analysis.

## # A tibble: 324,354 x 6
## # Groups:   Amicus_Name [194]
##    word    Amicus_Name                       n total  rank `term frequency`
##    <chr>   <chr>                         <int> <int> <int>            <dbl>
##  1 court   Attorney General               1535 86970     1          0.0176 
##  2 court   Michigan Association for Jus~  1381 80981     1          0.0171 
##  3 court   Prosecuting Attorneys Associ~  1311 66361     1          0.0198 
##  4 mich    Michigan Association for Jus~   945 80981     2          0.0117 
##  5 court   Michigan Municipal League       889 65494     1          0.0136 
##  6 mich    Attorney General                773 86970     2          0.00889
##  7 court   Michigan Defense Trial Couns~   765 44928     1          0.0170 
##  8 trial   Attorney General                726 86970     3          0.00835
##  9 mich    Michigan Municipal League       655 65494     2          0.0100 
## 10 eviden~ Attorney General                646 86970     4          0.00743
## # ... with 324,344 more rows
…
Bigrams

Bigrams present the directionality of words that appear within amicus briefs. In the Michigan Supreme Court, amicus filers will use word pairs like trial court, amicus curiae, and common law with relative frequency. Each of these word pairs would be a single bigram.

When only looking at bigrams that appear 180 times across all narratives, the word pairs reveal common legal jargon that would appear to support an argument or claim within court. However, there is strong indication that specific pairs are tied to specific areas of law. For example, reasonable doubt is likely tied to criminal procedings in which the burden of evidence must be proved beyond a reasonable doubt. Yet, other themematic bigrams appear as well like real property or medical malpractice. To a certain degree, bigrams can highlight various trends and patterns among cases appearing before the Michigan Supreme Court.

## # A tibble: 179,478 x 3
##    word1    word2       n
##    <chr>    <chr>   <int>
##  1 mich     app      3139
##  2 trial    court    1554
##  3 supreme  court    1509
##  4 amicus   curiae   1253
##  5 emphasis added    1219
##  6 common   law       838
##  7 due      process   807
##  8 peer     review    759
##  9 circuit  court     726
## 10 health   care      622
## # ... with 179,468 more rows
…
Word Positions

The position of words can provide insight into the overall structure of amicus briefs. There are two primary ways that words can be sorted to show their location. First, they can be sorted to show which words are more likely to show up at the beginning or end of the amicus brief. Second, words that are over-represented at specific points in the text can be mapped.

In the first, figure the top 15 words that are shifted to both the beginning and end of an amicus brief is shown. It is clear that certain words might be used more at either the beginning or end of a narrative. A word like statement is very likely to show up in the beginning of an amicus brief, while respectfully is almostly guaranteed to show up at the very end of an amicus brief (unsurprising since many briefs end with a respectfully, ).

## # A tibble: 1,225 x 3
##    word         median_position number
##    <chr>                  <dbl>  <int>
##  1 statement              0.112   1628
##  2 curiae                 0.118   1554
##  3 association            0.122   1133
##  4 organization           0.143    281
##  5 amicus                 0.183   1906
##  6 members                0.199   1244
##  7 amici                  0.201    617
##  8 membership             0.211    261
##  9 leave                  0.236    773
## 10 de                     0.241    389
## # ... with 1,215 more rows
…
Of course, looking at the sentiment of all amicus briefs does not reveal anything about the language usage of specific amicus filers. Looking at the language usage of the most frequently filing groups reveals fairly significant variation in language usage. When an Attorney General or the Prosecuting Attorneys Association of Michigan file a brief, they use the most negative language. Conversely, the Michigan Municipal League uses some of the most positive language.

## # A tibble: 194 x 2
##    Amicus_Name                                       n
##    <chr>                                         <int>
##  1 Michigan Association for Justice                 28
##  2 Attorney General                                 27
##  3 Prosecuting Attorneys Association of Michigan    27
##  4 Michigan Municipal League                        16
##  5 Michigan Defense Trial Counsel                   15
##  6 Criminal Defense Attorney's of Michigan          10
##  7 Coalition Protecting Auto No-Fault                9
##  8 Michigan Manufacturers Association                9
##  9 Michigan Townships Association                    9
## 10 Insurance Institute of Michigan                   8
## # ... with 184 more rows
…
Consequently, when we view the language usage across some of the most frequent filing attorneys, regardless of group, actual language usage becomes a bit more clear. For the most part, attorneys use negative language. However, for Michael A. Cox, Richard C. Kraus, and Liisa R. Speaker, the language usage is noticeably more positive than other frequent, filing attorneys.

## # A tibble: 249 x 2
##    Attorney_Name             n
##    <chr>                 <int>
##  1 Bill Schuette            24
##  2 Kym L. Worthy            10
##  3 Mary M. Ross             10
##  4 Michael A. Cox           10
##  5 Gregory L. McClelland     9
##  6 Brian A. Peppler          6
##  7 Liisa R. Speaker          6
##  8 Richard C. Kraus          5
##  9 Ronald J. Schafer         5
## 10 Carson J. Tucker          4
## # ... with 239 more rows
…
